…
### Utility functions:


```r
options(max.print = 30)

# get data:
ret = get_interest_rates()

# Convert xts to tbl and keep the date
xts2tbl(ret)
```

```
## # A tibble: 73 x 5
##          date   ref   lom   dep   red
##        <date> <dbl> <dbl> <dbl> <dbl>
## 1  1998-02-26  24.0  27.0    NA 24.50
## 2  1998-04-23  23.0  27.0    NA 24.50
## 3  1998-05-21  21.5  26.0    NA 23.50
## 4  1998-07-17  19.0  24.0    NA 21.50
## 5  1998-09-10  18.0  24.0    NA 21.50
##  [ reached getOption("max.print") -- omitted 5 rows ]
…
